# Headers are of the form: --- start_of_next_year ---
# Entries are of the form: trigger_name scale_factor

# 2015 Data
--- 296939 ---
HLT_j225_bloose 1.0
HLT_j100_2j55_bmedium 1.0
HLT_2j35_btight_2j35_L13J25.0ETA23 1.0
HLT_mu24_imedium 1.0
HLT_e24_lhtight_iloose 1.0

# 2016 Data
--- 324320 ---
HLT_j225_bmv2c2060_split 1.0
HLT_j100_2j55_bmv2c2060_split 1.0
HLT_2j35_bmv2c2060_split_2j35_L14J15.0ETA25 1.0
HLT_mu26_ivarmedium 1.0
HLT_e26_lhtight_nod0_ivarloose 1.0

# 2017 Data
--- 348197 ---
HLT_j225_gsc300_bmv2c1070_split 1.0
HLT_2j35_gsc55_bmv2c1050_split_ht300_L1HT190-J15s5.ETA21 1.0
HLT_j110_gsc150_boffperf_split_2j35_gsc55_bmv2c1070_split_L1J85_3J30 1.0
HLT_2j15_gsc35_bmv2c1040_split_2j15_gsc35_boffperf_split_L14J15.0ETA25 1.0
HLT_mu26_ivarmedium 1.0
HLT_e26_lhtight_nod0_ivarloose 1.0

# 2018 Data
--- 364486 ---
HLT_j225_gsc300_bmv2c1070_split 1.0
HLT_2j45_gsc55_bmv2c1050_split_ht300_L1HT190-J15s5.ETA21 1.0
HLT_j110_gsc150_boffperf_split_2j45_gsc55_bmv2c1070_split_L1J85_3J30 1.0
HLT_2j35_bmv2c1060_split_2j35_L14J15.0ETA25 1.0
HLT_mu26_ivarmedium 1.0
HLT_e26_lhtight_nod0_ivarloose 1.0
