user.shhayash.HH4B.450000.SM_HH.MC16a-2015-2016.AB21.2.91-APR20-1-JetSF-JUN25-1.min_MiniNTuple.root/
user.shhayash.HH4B.450000.SM_HH.MC16d-2017.AB21.2.91-APR20-1-JetSF-JUN25-1.min_MiniNTuple.root/
user.shhayash.HH4B.450000.SM_HH.MC16e-2018.AB21.2.91-APR20-1-JetSF-JUN25-1.min_MiniNTuple.root/
