user.shhayash.HH4B.363356.diboson.MC16e-2018.AB21.2.91-MAR20-0-JetSF-JUN25-1.min_MiniNTuple.root/
user.shhayash.HH4B.363358.diboson.MC16e-2018.AB21.2.91-MAR20-0-JetSF-JUN25-1.min_MiniNTuple.root/
user.shhayash.HH4B.363359.diboson.MC16e-2018.AB21.2.91-MAR20-0-JetSF-JUN25-1.min_MiniNTuple.root/
user.shhayash.HH4B.363360.diboson.MC16e-2018.AB21.2.91-MAR20-0-JetSF-JUN25-2.min_MiniNTuple.root/
