user.shhayash.HH4B.301489.RS_graviton.MC16d-2017.AB21.2.91-APR20-1-JetSF-JUN25-1.min_MiniNTuple.root/
user.shhayash.HH4B.301491.RS_graviton.MC16d-2017.AB21.2.91-APR20-1-JetSF-JUN25-1.min_MiniNTuple.root/
user.shhayash.HH4B.301493.RS_graviton.MC16d-2017.AB21.2.91-APR20-1-JetSF-JUN25-1.min_MiniNTuple.root/
