user.shhayash.HH4B.364102.vjets.MC16a-2015-2016.AB21.2.91-APR20-1-JetSF-JUN25-1.min_MiniNTuple.root/
user.shhayash.HH4B.364105.vjets.MC16a-2015-2016.AB21.2.91-APR20-1-JetSF-JUN25-1.min_MiniNTuple.root/
user.shhayash.HH4B.364108.vjets.MC16a-2015-2016.AB21.2.91-APR20-1-JetSF-JUN25-1.min_MiniNTuple.root/
user.shhayash.HH4B.364111.vjets.MC16a-2015-2016.AB21.2.91-APR20-1-JetSF-JUN25-1.min_MiniNTuple.root/
